﻿{
  "Settings": {
    "Name": "Office2016Palette",
    "DisplayName": "Teal"
  },
  "Colors": [
    "#FF077568",
    "#FF99CCC6",
    "#FF3E948A",
    "#FF065E53",
    "#FFF1F1F1",
    "#FFABABAB",
    "#FFE1E1E1",
    "#FF444444",
    "#FFFFFFFF",
    "#FF444444",
    "#FFFFFFFF",
    "#FFC5C5C5",
    "#FFAEAEAE",
    "#FFE6E6E6",
    "#FFEBEBEB",
    "#FFE81123"
  ]
}